\relax 
\providecommand*\new@tpo@label[2]{}
\select@language{USenglish}
\@writefile{toc}{\select@language{USenglish}}
\@writefile{lof}{\select@language{USenglish}}
\@writefile{lot}{\select@language{USenglish}}
\@writefile{toc}{\contentsline {chapter}{\numberline {1}input}{1}}
\@writefile{lof}{\addvspace {10\p@ }}
\@writefile{lot}{\addvspace {10\p@ }}
\@writefile{toc}{\contentsline {chapter}{\numberline {2}input data types}{2}}
\@writefile{lof}{\addvspace {10\p@ }}
\@writefile{lot}{\addvspace {10\p@ }}
\@writefile{toc}{\contentsline {chapter}{\numberline {3}Functionality}{3}}
\@writefile{lof}{\addvspace {10\p@ }}
\@writefile{lot}{\addvspace {10\p@ }}
\@writefile{toc}{\contentsline {section}{\numberline {3.1}For image data}{3}}
\@writefile{toc}{\contentsline {section}{\numberline {3.2}For video data}{4}}
\@writefile{toc}{\contentsline {section}{\numberline {3.3}For textual data}{4}}
\@writefile{toc}{\contentsline {section}{\numberline {3.4}For audio data}{4}}
\@writefile{toc}{\contentsline {section}{\numberline {3.5}labels}{5}}
\@writefile{toc}{\contentsline {chapter}{\numberline {4}output}{6}}
\@writefile{lof}{\addvspace {10\p@ }}
\@writefile{lot}{\addvspace {10\p@ }}
